G04 #@! TF.FileFunction,Legend,Top*
%FSLAX46Y46*%
G04 Gerber Fmt 4.6, Leading zero omitted, Abs format (unit mm)*
G04 Created by KiCad (PCBNEW 4.0.1-stable) date 2017-04-25 9:24:51 AM*
%MOMM*%
G01*
G04 APERTURE LIST*
%ADD10C,0.100000*%
%ADD11C,0.300000*%
%ADD12C,0.152400*%
%ADD13C,0.120000*%
%ADD14C,0.127000*%
%ADD15C,0.063500*%
%ADD16C,0.048260*%
%ADD17C,0.150000*%
G04 APERTURE END LIST*
D10*
D11*
X38028571Y-49449999D02*
X39242857Y-49449999D01*
X39385714Y-49378571D01*
X39457143Y-49307142D01*
X39528571Y-49164285D01*
X39528571Y-48878571D01*
X39457143Y-48735713D01*
X39385714Y-48664285D01*
X39242857Y-48592856D01*
X38028571Y-48592856D01*
X39457143Y-47949999D02*
X39528571Y-47735713D01*
X39528571Y-47378570D01*
X39457143Y-47235713D01*
X39385714Y-47164284D01*
X39242857Y-47092856D01*
X39100000Y-47092856D01*
X38957143Y-47164284D01*
X38885714Y-47235713D01*
X38814286Y-47378570D01*
X38742857Y-47664284D01*
X38671429Y-47807142D01*
X38600000Y-47878570D01*
X38457143Y-47949999D01*
X38314286Y-47949999D01*
X38171429Y-47878570D01*
X38100000Y-47807142D01*
X38028571Y-47664284D01*
X38028571Y-47307142D01*
X38100000Y-47092856D01*
X38742857Y-45949999D02*
X38814286Y-45735713D01*
X38885714Y-45664285D01*
X39028571Y-45592856D01*
X39242857Y-45592856D01*
X39385714Y-45664285D01*
X39457143Y-45735713D01*
X39528571Y-45878571D01*
X39528571Y-46449999D01*
X38028571Y-46449999D01*
X38028571Y-45949999D01*
X38100000Y-45807142D01*
X38171429Y-45735713D01*
X38314286Y-45664285D01*
X38457143Y-45664285D01*
X38600000Y-45735713D01*
X38671429Y-45807142D01*
X38742857Y-45949999D01*
X38742857Y-46449999D01*
X38171429Y-43878571D02*
X38100000Y-43807142D01*
X38028571Y-43664285D01*
X38028571Y-43307142D01*
X38100000Y-43164285D01*
X38171429Y-43092856D01*
X38314286Y-43021428D01*
X38457143Y-43021428D01*
X38671429Y-43092856D01*
X39528571Y-43949999D01*
X39528571Y-43021428D01*
X39385714Y-42378571D02*
X39457143Y-42307143D01*
X39528571Y-42378571D01*
X39457143Y-42450000D01*
X39385714Y-42378571D01*
X39528571Y-42378571D01*
X38028571Y-41378571D02*
X38028571Y-41235714D01*
X38100000Y-41092857D01*
X38171429Y-41021428D01*
X38314286Y-40949999D01*
X38600000Y-40878571D01*
X38957143Y-40878571D01*
X39242857Y-40949999D01*
X39385714Y-41021428D01*
X39457143Y-41092857D01*
X39528571Y-41235714D01*
X39528571Y-41378571D01*
X39457143Y-41521428D01*
X39385714Y-41592857D01*
X39242857Y-41664285D01*
X38957143Y-41735714D01*
X38600000Y-41735714D01*
X38314286Y-41664285D01*
X38171429Y-41592857D01*
X38100000Y-41521428D01*
X38028571Y-41378571D01*
X41142857Y-51450000D02*
X41142857Y-50950000D01*
X41928571Y-50735714D02*
X41928571Y-51450000D01*
X40428571Y-51450000D01*
X40428571Y-50735714D01*
X41928571Y-50092857D02*
X40428571Y-50092857D01*
X41500000Y-49592857D01*
X40428571Y-49092857D01*
X41928571Y-49092857D01*
X41785714Y-47521428D02*
X41857143Y-47592857D01*
X41928571Y-47807143D01*
X41928571Y-47950000D01*
X41857143Y-48164285D01*
X41714286Y-48307143D01*
X41571429Y-48378571D01*
X41285714Y-48450000D01*
X41071429Y-48450000D01*
X40785714Y-48378571D01*
X40642857Y-48307143D01*
X40500000Y-48164285D01*
X40428571Y-47950000D01*
X40428571Y-47807143D01*
X40500000Y-47592857D01*
X40571429Y-47521428D01*
X41928571Y-45092857D02*
X40428571Y-45092857D01*
X41857143Y-45092857D02*
X41928571Y-45235714D01*
X41928571Y-45521428D01*
X41857143Y-45664286D01*
X41785714Y-45735714D01*
X41642857Y-45807143D01*
X41214286Y-45807143D01*
X41071429Y-45735714D01*
X41000000Y-45664286D01*
X40928571Y-45521428D01*
X40928571Y-45235714D01*
X41000000Y-45092857D01*
X41928571Y-44164285D02*
X41857143Y-44307143D01*
X41785714Y-44378571D01*
X41642857Y-44450000D01*
X41214286Y-44450000D01*
X41071429Y-44378571D01*
X41000000Y-44307143D01*
X40928571Y-44164285D01*
X40928571Y-43950000D01*
X41000000Y-43807143D01*
X41071429Y-43735714D01*
X41214286Y-43664285D01*
X41642857Y-43664285D01*
X41785714Y-43735714D01*
X41857143Y-43807143D01*
X41928571Y-43950000D01*
X41928571Y-44164285D01*
X40928571Y-43021428D02*
X41928571Y-43021428D01*
X41071429Y-43021428D02*
X41000000Y-42950000D01*
X40928571Y-42807142D01*
X40928571Y-42592857D01*
X41000000Y-42450000D01*
X41142857Y-42378571D01*
X41928571Y-42378571D01*
X40928571Y-41021428D02*
X42142857Y-41021428D01*
X42285714Y-41092857D01*
X42357143Y-41164285D01*
X42428571Y-41307142D01*
X42428571Y-41521428D01*
X42357143Y-41664285D01*
X41857143Y-41021428D02*
X41928571Y-41164285D01*
X41928571Y-41449999D01*
X41857143Y-41592857D01*
X41785714Y-41664285D01*
X41642857Y-41735714D01*
X41214286Y-41735714D01*
X41071429Y-41664285D01*
X41000000Y-41592857D01*
X40928571Y-41449999D01*
X40928571Y-41164285D01*
X41000000Y-41021428D01*
X41928571Y-40092856D02*
X41857143Y-40235714D01*
X41714286Y-40307142D01*
X40428571Y-40307142D01*
X41857143Y-38950000D02*
X41928571Y-39092857D01*
X41928571Y-39378571D01*
X41857143Y-39521428D01*
X41714286Y-39592857D01*
X41142857Y-39592857D01*
X41000000Y-39521428D01*
X40928571Y-39378571D01*
X40928571Y-39092857D01*
X41000000Y-38950000D01*
X41142857Y-38878571D01*
X41285714Y-38878571D01*
X41428571Y-39592857D01*
D12*
X27388430Y-37484860D02*
X31048570Y-37484860D01*
X39783630Y-37484860D02*
X39783630Y-34287000D01*
X39783630Y-21231400D02*
X27388430Y-21231400D01*
X27388430Y-21231400D02*
X27388430Y-27581400D01*
X36151430Y-37484860D02*
X39783630Y-37484860D01*
X27388430Y-34287000D02*
X27388430Y-37484860D01*
X39783630Y-27581400D02*
X39783630Y-21231400D01*
D13*
X31250000Y-46550000D02*
X32250000Y-46550000D01*
X32250000Y-44850000D02*
X31250000Y-44850000D01*
D14*
X35597560Y-40802200D02*
X34002440Y-40802200D01*
X34002440Y-43697800D02*
X35597560Y-43697800D01*
X32552100Y-43997520D02*
X32552100Y-40502480D01*
X32552100Y-40502480D02*
X37047900Y-40502480D01*
X37047900Y-40502480D02*
X37047900Y-43997520D01*
X37047900Y-43997520D02*
X32552100Y-43997520D01*
D15*
X35379736Y-43459040D02*
G75*
G03X35379736Y-43459040I-10776J0D01*
G01*
D13*
X28420000Y-44100000D02*
X28420000Y-42900000D01*
X30180000Y-42900000D02*
X30180000Y-44100000D01*
X28420000Y-48750000D02*
X28420000Y-47550000D01*
X30180000Y-47550000D02*
X30180000Y-48750000D01*
D14*
X34050700Y-48748600D02*
X34050700Y-45751400D01*
X34050700Y-45751400D02*
X35549300Y-45751400D01*
X35549300Y-45751400D02*
X35549300Y-48748600D01*
X35549300Y-48748600D02*
X34050700Y-48748600D01*
D16*
X35581629Y-45751400D02*
G75*
G03X35581629Y-45751400I-32329J0D01*
G01*
D10*
X40000000Y-52400000D02*
X37850000Y-52400000D01*
X27500000Y-52400000D02*
X29650000Y-52400000D01*
X40000000Y-52400000D02*
X40000000Y-54700000D01*
X27500000Y-52400000D02*
X27500000Y-54700000D01*
X40000000Y-66150000D02*
X40000000Y-57900000D01*
X27500000Y-66150000D02*
X27500000Y-57900000D01*
X27500000Y-66150000D02*
X40000000Y-66150000D01*
D17*
X37262619Y-39124524D02*
X37262619Y-37854524D01*
X37746428Y-37854524D01*
X37867381Y-37915000D01*
X37927857Y-37975476D01*
X37988333Y-38096429D01*
X37988333Y-38277857D01*
X37927857Y-38398810D01*
X37867381Y-38459286D01*
X37746428Y-38519762D01*
X37262619Y-38519762D01*
X39076905Y-37854524D02*
X38835000Y-37854524D01*
X38714048Y-37915000D01*
X38653571Y-37975476D01*
X38532619Y-38156905D01*
X38472143Y-38398810D01*
X38472143Y-38882619D01*
X38532619Y-39003571D01*
X38593095Y-39064048D01*
X38714048Y-39124524D01*
X38955952Y-39124524D01*
X39076905Y-39064048D01*
X39137381Y-39003571D01*
X39197857Y-38882619D01*
X39197857Y-38580238D01*
X39137381Y-38459286D01*
X39076905Y-38398810D01*
X38955952Y-38338333D01*
X38714048Y-38338333D01*
X38593095Y-38398810D01*
X38532619Y-38459286D01*
X38472143Y-38580238D01*
X31107143Y-47557143D02*
X31059524Y-47604762D01*
X30916667Y-47652381D01*
X30821429Y-47652381D01*
X30678571Y-47604762D01*
X30583333Y-47509524D01*
X30535714Y-47414286D01*
X30488095Y-47223810D01*
X30488095Y-47080952D01*
X30535714Y-46890476D01*
X30583333Y-46795238D01*
X30678571Y-46700000D01*
X30821429Y-46652381D01*
X30916667Y-46652381D01*
X31059524Y-46700000D01*
X31107143Y-46747619D01*
X31440476Y-46652381D02*
X32059524Y-46652381D01*
X31726190Y-47033333D01*
X31869048Y-47033333D01*
X31964286Y-47080952D01*
X32011905Y-47128571D01*
X32059524Y-47223810D01*
X32059524Y-47461905D01*
X32011905Y-47557143D01*
X31964286Y-47604762D01*
X31869048Y-47652381D01*
X31583333Y-47652381D01*
X31488095Y-47604762D01*
X31440476Y-47557143D01*
X32535714Y-47652381D02*
X32726190Y-47652381D01*
X32821429Y-47604762D01*
X32869048Y-47557143D01*
X32964286Y-47414286D01*
X33011905Y-47223810D01*
X33011905Y-46842857D01*
X32964286Y-46747619D01*
X32916667Y-46700000D01*
X32821429Y-46652381D01*
X32630952Y-46652381D01*
X32535714Y-46700000D01*
X32488095Y-46747619D01*
X32440476Y-46842857D01*
X32440476Y-47080952D01*
X32488095Y-47176190D01*
X32535714Y-47223810D01*
X32630952Y-47271429D01*
X32821429Y-47271429D01*
X32916667Y-47223810D01*
X32964286Y-47176190D01*
X33011905Y-47080952D01*
D10*
X34112705Y-45158561D02*
X34112705Y-44158561D01*
X34350800Y-44158561D01*
X34493658Y-44206180D01*
X34588896Y-44301418D01*
X34636515Y-44396656D01*
X34684134Y-44587132D01*
X34684134Y-44729990D01*
X34636515Y-44920466D01*
X34588896Y-45015704D01*
X34493658Y-45110942D01*
X34350800Y-45158561D01*
X34112705Y-45158561D01*
X35588896Y-44158561D02*
X35112705Y-44158561D01*
X35065086Y-44634751D01*
X35112705Y-44587132D01*
X35207943Y-44539513D01*
X35446039Y-44539513D01*
X35541277Y-44587132D01*
X35588896Y-44634751D01*
X35636515Y-44729990D01*
X35636515Y-44968085D01*
X35588896Y-45063323D01*
X35541277Y-45110942D01*
X35446039Y-45158561D01*
X35207943Y-45158561D01*
X35112705Y-45110942D01*
X35065086Y-45063323D01*
D17*
X27628571Y-44233333D02*
X27628571Y-44566667D01*
X28152381Y-44566667D02*
X27152381Y-44566667D01*
X27152381Y-44090476D01*
X27628571Y-43376190D02*
X27676190Y-43233333D01*
X27723810Y-43185714D01*
X27819048Y-43138095D01*
X27961905Y-43138095D01*
X28057143Y-43185714D01*
X28104762Y-43233333D01*
X28152381Y-43328571D01*
X28152381Y-43709524D01*
X27152381Y-43709524D01*
X27152381Y-43376190D01*
X27200000Y-43280952D01*
X27247619Y-43233333D01*
X27342857Y-43185714D01*
X27438095Y-43185714D01*
X27533333Y-43233333D01*
X27580952Y-43280952D01*
X27628571Y-43376190D01*
X27628571Y-43709524D01*
X27152381Y-42804762D02*
X27152381Y-42138095D01*
X28152381Y-42566667D01*
X27778571Y-49083333D02*
X27778571Y-49416667D01*
X28302381Y-49416667D02*
X27302381Y-49416667D01*
X27302381Y-48940476D01*
X27778571Y-48226190D02*
X27826190Y-48083333D01*
X27873810Y-48035714D01*
X27969048Y-47988095D01*
X28111905Y-47988095D01*
X28207143Y-48035714D01*
X28254762Y-48083333D01*
X28302381Y-48178571D01*
X28302381Y-48559524D01*
X27302381Y-48559524D01*
X27302381Y-48226190D01*
X27350000Y-48130952D01*
X27397619Y-48083333D01*
X27492857Y-48035714D01*
X27588095Y-48035714D01*
X27683333Y-48083333D01*
X27730952Y-48130952D01*
X27778571Y-48226190D01*
X27778571Y-48559524D01*
X27730952Y-47416667D02*
X27683333Y-47511905D01*
X27635714Y-47559524D01*
X27540476Y-47607143D01*
X27492857Y-47607143D01*
X27397619Y-47559524D01*
X27350000Y-47511905D01*
X27302381Y-47416667D01*
X27302381Y-47226190D01*
X27350000Y-47130952D01*
X27397619Y-47083333D01*
X27492857Y-47035714D01*
X27540476Y-47035714D01*
X27635714Y-47083333D01*
X27683333Y-47130952D01*
X27730952Y-47226190D01*
X27730952Y-47416667D01*
X27778571Y-47511905D01*
X27826190Y-47559524D01*
X27921429Y-47607143D01*
X28111905Y-47607143D01*
X28207143Y-47559524D01*
X28254762Y-47511905D01*
X28302381Y-47416667D01*
X28302381Y-47226190D01*
X28254762Y-47130952D01*
X28207143Y-47083333D01*
X28111905Y-47035714D01*
X27921429Y-47035714D01*
X27826190Y-47083333D01*
X27778571Y-47130952D01*
X27730952Y-47226190D01*
D10*
X36389207Y-47326027D02*
X36389207Y-47659360D01*
X35689207Y-47659360D01*
X35755873Y-47126027D02*
X35722540Y-47092693D01*
X35689207Y-47026027D01*
X35689207Y-46859360D01*
X35722540Y-46792693D01*
X35755873Y-46759360D01*
X35822540Y-46726027D01*
X35889207Y-46726027D01*
X35989207Y-46759360D01*
X36389207Y-47159360D01*
X36389207Y-46726027D01*
D17*
X33011905Y-50439381D02*
X33011905Y-49439381D01*
X33392858Y-49439381D01*
X33488096Y-49487000D01*
X33535715Y-49534619D01*
X33583334Y-49629857D01*
X33583334Y-49772714D01*
X33535715Y-49867952D01*
X33488096Y-49915571D01*
X33392858Y-49963190D01*
X33011905Y-49963190D01*
X34059524Y-50439381D02*
X34250000Y-50439381D01*
X34345239Y-50391762D01*
X34392858Y-50344143D01*
X34488096Y-50201286D01*
X34535715Y-50010810D01*
X34535715Y-49629857D01*
X34488096Y-49534619D01*
X34440477Y-49487000D01*
X34345239Y-49439381D01*
X34154762Y-49439381D01*
X34059524Y-49487000D01*
X34011905Y-49534619D01*
X33964286Y-49629857D01*
X33964286Y-49867952D01*
X34011905Y-49963190D01*
X34059524Y-50010810D01*
X34154762Y-50058429D01*
X34345239Y-50058429D01*
X34440477Y-50010810D01*
X34488096Y-49963190D01*
X34535715Y-49867952D01*
M02*
